{
    "id": "5c9a34921868e7ffb635ec0d",
    "name": "mongodb-atlas",
    "type": "mongodb-atlas",
    "config": {
        "clusterName": "TheRossDB",
        "wireProtocolEnabled": false
    },
    "version": 1
}
